…
# PHASE 4: *ANALYSE*

## R Analysis Calculations

### Calculate how often a team scoring first leads to a win

``` r
results_with_goals <- filter(processed_results, winning_team != "" & (home_score > 0 | away_score > 0)) %>%
  filter(date >= "1916-07-02" & date <= "2024-07-14") #goalscorer data was only captured from 1916-07-02 to 2024-07-14
results_with_goals
```

    ## # A tibble: 27,339 × 12
    ##    date       home_team away_team home_score away_score tournament city  country
    ##    <date>     <chr>     <chr>          <dbl>      <dbl> <chr>      <chr> <chr>  
    ##  1 1978-02-12 Benin     Burkina …          0          2 Friendly   Port… Benin  
    ##  2 1979-04-15 Benin     Ivory Co…          1          0 African C… Coto… Benin  
    ##  3 1979-06-03 Benin     Togo               0          1 Friendly   Coto… Benin  
    ##  4 1979-07-25 Benin     DR Congo           0          1 Friendly   Port… Benin  
    ##  5 1979-07-28 Benin     DR Congo           0          3 Friendly   Coto… Benin  
    ##  6 1980-11-15 Benin     Niger              1          0 Friendly   Coto… Benin  
    ##  7 1981-07-16 Benin     DR Congo           1          2 Friendly   Coto… Benin  
    ##  8 1981-07-19 Benin     Ghana              1          2 Friendly   Coto… Benin  
    ##  9 1982-01-24 Benin     Mali               2          3 Friendly   Coto… Benin  
    ## 10 1982-02-13 Benin     Ghana              0          4 West Afri… Coto… Benin  
    ## # ℹ 27,329 more rows
    ## # ℹ 4 more variables: neutral <lgl>, home_or_away_win <chr>,
    ## #   winning_team <chr>, matchID <chr>
…
    ## # A tibble: 1 × 1
    ##       n
    ##   <int>
    ## 1 27339

``` r
first_scorers <- filter(processed_goalscorers, goals_in_match == 1 & own_goal == FALSE)
first_scorers
```

    ## # A tibble: 14,073 × 13
    ##    date       home_team away_team scorers_team scorer    minute own_goal penalty
    ##    <date>     <chr>     <chr>     <chr>        <chr>      <dbl> <lgl>    <lgl>  
    ##  1 1916-07-02 Chile     Uruguay   Uruguay      José Pie…     44 FALSE    FALSE  
    ##  2 1916-07-06 Argentina Chile     Argentina    Alberto …      2 FALSE    FALSE  
    ##  3 1916-07-08 Brazil    Chile     Brazil       Demósten…     29 FALSE    FALSE  
    ##  4 1916-07-10 Argentina Brazil    Argentina    José Dur…     10 FALSE    FALSE  
    ##  5 1916-07-12 Brazil    Uruguay   Brazil       Arthur F…      8 FALSE    FALSE  
    ##  6 1917-09-30 Uruguay   Chile     Uruguay      Carlos S…     20 FALSE    FALSE  
    ##  7 1917-10-03 Argentina Brazil    Brazil       Neco           8 FALSE    FALSE  
    ##  8 1917-10-07 Uruguay   Brazil    Uruguay      Héctor S…      8 FALSE    FALSE  
    ##  9 1917-10-12 Brazil    Chile     Brazil       Caetano …     21 FALSE    FALSE  
    ## 10 1917-10-14 Uruguay   Argentina Uruguay      Héctor S…     62 FALSE    FALSE  
    ## # ℹ 14,063 more rows
    ## # ℹ 5 more variables: extra_time <chr>, goalscorer_tally <dbl>,
    ## #   goals_in_match <dbl>, matchID <chr>,
    ## #   first_or_second_half_or_extra_time_goal <chr>

``` r
results_with_goals_and_record_of_goalscorers <- filter(results_with_goals, results_with_goals$matchID %in% first_scorers$matchID)
results_with_goals_and_record_of_goalscorers
```

    ## # A tibble: 9,227 × 12
    ##    date       home_team away_team home_score away_score tournament city  country
    ##    <date>     <chr>     <chr>          <dbl>      <dbl> <chr>      <chr> <chr>  
    ##  1 1984-10-28 Benin     Tunisia            0          2 FIFA Worl… Coto… Benin  
    ##  2 1992-10-25 Benin     Morocco            0          1 FIFA Worl… Coto… Benin  
    ##  3 1993-01-17 Benin     Tunisia            0          5 FIFA Worl… Coto… Benin  
    ##  4 1993-02-28 Benin     Ethiopia           1          0 FIFA Worl… Coto… Benin  
    ##  5 2003-11-16 Benin     Madagasc…          3          2 FIFA Worl… Coto… Benin  
    ##  6 2004-10-10 Benin     Ivory Co…          0          1 FIFA Worl… Coto… Benin  
    ##  7 2005-06-04 Benin     Cameroon           1          4 FIFA Worl… Coto… Benin  
    ##  8 2005-10-09 Benin     Libya              1          0 FIFA Worl… Coto… Benin  
    ##  9 2008-06-08 Benin     Uganda             4          1 FIFA Worl… Coto… Benin  
    ## 10 2008-06-22 Benin     Niger              2          0 FIFA Worl… Coto… Benin  
    ## # ℹ 9,217 more rows
    ## # ℹ 4 more variables: neutral <lgl>, home_or_away_win <chr>,
    ## #   winning_team <chr>, matchID <chr>

``` r
scoring_first_and_result <- full_join(results_with_goals_and_record_of_goalscorers,first_scorers,  by = "matchID", relationship = "many-to-many") %>%
  select(date.x, home_team.x, away_team.x, scorers_team, winning_team) 
scoring_first_and_result
```

    ## # A tibble: 14,370 × 5
    ##    date.x     home_team.x away_team.x scorers_team winning_team
    ##    <date>     <chr>       <chr>       <chr>        <chr>       
    ##  1 1984-10-28 Benin       Tunisia     Tunisia      Tunisia     
    ##  2 1992-10-25 Benin       Morocco     Morocco      Morocco     
    ##  3 1993-01-17 Benin       Tunisia     Tunisia      Tunisia     
    ##  4 1993-02-28 Benin       Ethiopia    Benin        Benin       
    ##  5 2003-11-16 Benin       Madagascar  Madagascar   Benin       
    ##  6 2004-10-10 Benin       Ivory Coast Ivory Coast  Ivory Coast 
    ##  7 2005-06-04 Benin       Cameroon    Cameroon     Cameroon    
    ##  8 2005-10-09 Benin       Libya       Benin        Benin       
    ##  9 2008-06-08 Benin       Uganda      Uganda       Benin       
    ## 10 2008-06-22 Benin       Niger       Benin        Benin       
    ## # ℹ 14,360 more rows
…
#png(filename="/International_Football_Data_Analysis-R-Markdown_files/figure-gf/scoring first and winning.png", width=800, height=800)

while (!is.null(dev.list()))  dev.off()

pie(slices, labels = pie_labels, main = "Scoring First And Winning")
```

``` r
scoring_first_by_country_correlation_x <- filter(processed_goalscorers, goals_in_match == 1 & own_goal == FALSE) %>%
  group_by(scorers_team) %>%
  count()
scoring_first_by_country_correlation_x
```

    ## # A tibble: 214 × 2
    ## # Groups:   scorers_team [214]
    ##    scorers_team            n
    ##    <chr>               <int>
    ##  1 Afghanistan             7
    ##  2 Albania                72
    ##  3 Algeria                88
    ##  4 American Samoa          3
    ##  5 Andorra                10
    ##  6 Angola                 41
    ##  7 Antigua and Barbuda    19
    ##  8 Argentina             283
    ##  9 Armenia                57
    ## 10 Aruba                   2
    ## # ℹ 204 more rows

``` r
total_wins_by_country_correlation_y <- processed_results %>%
  group_by(processed_results$winning_team) %>%
  count()
total_wins_by_country_correlation_y
```

    ## # A tibble: 286 × 2
    ## # Groups:   processed_results$winning_team [286]
    ##    `processed_results$winning_team`     n
    ##    <chr>                            <int>
    ##  1 ""                               21153
    ##  2 "Abkhazia"                           7
    ##  3 "Afghanistan"                        8
    ##  4 "Albania"                           94
    ##  5 "Alderney"                           1
    ##  6 "Algeria"                          205
    ##  7 "American Samoa"                     1
    ##  8 "Andalusia"                          8
    ##  9 "Andorra"                           12
    ## 10 "Angola"                           110
    ## # ℹ 276 more rows

``` r
total_scoring_first_vs_total_wins_by_country <- inner_join(scoring_first_by_country_correlation_x, total_wins_by_country_correlation_y, by = c("scorers_team" = "processed_results$winning_team"))
total_scoring_first_vs_total_wins_by_country
```

    ## # A tibble: 214 × 3
    ## # Groups:   scorers_team [214]
    ##    scorers_team          n.x   n.y
    ##    <chr>               <int> <int>
    ##  1 Afghanistan             7     8
    ##  2 Albania                72    94
    ##  3 Algeria                88   205
    ##  4 American Samoa          3     1
    ##  5 Andorra                10    12
    ##  6 Angola                 41   110
    ##  7 Antigua and Barbuda    19    53
    ##  8 Argentina             283   396
    ##  9 Armenia                57    54
    ## 10 Aruba                   2    24
    ## # ℹ 204 more rows
…
    ## `geom_smooth()` using formula = 'y ~ x'

### What is the correlation between being winning the most and scoring the most goals

``` r
total_wins_by_country_correlation_y <- processed_results %>%
  group_by(processed_results$winning_team) %>%
  count()
total_wins_by_country_correlation_y
```

    ## # A tibble: 286 × 2
    ## # Groups:   processed_results$winning_team [286]
    ##    `processed_results$winning_team`     n
    ##    <chr>                            <int>
    ##  1 ""                               21153
    ##  2 "Abkhazia"                           7
    ##  3 "Afghanistan"                        8
    ##  4 "Albania"                           94
    ##  5 "Alderney"                           1
    ##  6 "Algeria"                          205
    ##  7 "American Samoa"                     1
    ##  8 "Andalusia"                          8
    ##  9 "Andorra"                           12
    ## 10 "Angola"                           110
    ## # ℹ 276 more rows

``` r
total_goals_by_country_correlation_x <- processed_goalscorers %>%
  group_by(processed_goalscorers$scorers_team) %>%
  count()

total_goals_by_country_correlation_x
```

    ## # A tibble: 220 × 2
    ## # Groups:   processed_goalscorers$scorers_team [220]
    ##    `processed_goalscorers$scorers_team`     n
    ##    <chr>                                <int>
    ##  1 Afghanistan                             15
    ##  2 Albania                                198
    ##  3 Algeria                                260
    ##  4 American Samoa                          10
    ##  5 Andorra                                 48
    ##  6 Angola                                 129
    ##  7 Anguilla                                 2
    ##  8 Antigua and Barbuda                     64
    ##  9 Argentina                              948
    ## 10 Armenia                                162
    ## # ℹ 210 more rows

``` r
total_wins_vs_total_goals_by_country <- inner_join(total_goals_by_country_correlation_x, total_wins_by_country_correlation_y, by = c("processed_goalscorers$scorers_team" = "processed_results$winning_team"))
total_wins_vs_total_goals_by_country
```

    ## # A tibble: 220 × 3
    ## # Groups:   processed_goalscorers$scorers_team [220]
    ##    `processed_goalscorers$scorers_team`   n.x   n.y
    ##    <chr>                                <int> <int>
    ##  1 Afghanistan                             15     8
    ##  2 Albania                                198    94
    ##  3 Algeria                                260   205
    ##  4 American Samoa                          10     1
    ##  5 Andorra                                 48    12
    ##  6 Angola                                 129   110
    ##  7 Anguilla                                 2     3
    ##  8 Antigua and Barbuda                     64    53
    ##  9 Argentina                              948   396
    ## 10 Armenia                                162    54
    ## # ℹ 210 more rows
…
